project · RStudio Workbench
…
> replace_na(Electric_Car_Sales_by_Model_in_USA)
# A tibble: 57 × 99
   Make     Model Logo  `janv-12` `Feb 2012` `mars-12` `Apr 2012` `May 2012` `juin-12` `juil-12` `Aug 2012`
   <chr>    <chr> <chr>     <dbl>      <dbl>     <dbl>      <dbl>      <dbl>     <dbl>     <dbl>      <dbl>
 1 Chevrol… Volt  http…       603       1626      3915       5377       7057      8817     10666      13497
 2 Toyota   Priu… http…         0         21       912       2566       3652      4347      5035       6082
 3 Nissan   Leaf  http…       676       1154      1733       2103       2613      3148      3543       4228
 4 Tesla    Mode… http…         0         NA        NA         NA         NA        12        31         74
 5 Ford     C-Ma… http…         0         NA        NA         NA         NA        NA        NA         NA
 6 Ford     Focu… http…         2          2         2          2          8        97       135        169
 7 Mitsubi… i-Mi… http…        36         80       136        215        300       333       366        403
 8 Toyota   Rav4… http…         0         NA        NA         NA         NA        NA        NA         NA
 9 Honda    Fit … http…         0         NA        NA         NA         NA        NA         7         16
10 Ford     Fusi… http…         0         NA        NA         NA         NA        NA        NA         NA
# … with 47 more rows, and 88 more variables: `sept-12` <dbl>, `oct-12` <dbl>, `nov-12` <dbl>,
#   `Dec 2012` <dbl>, `janv-13` <dbl>, `Feb 2013` <dbl>, `mars-13` <dbl>, `Apr 2013` <dbl>,
#   `May 2013` <dbl>, `juin-13` <dbl>, `juil-13` <dbl>, `Aug 2013` <dbl>, `sept-13` <dbl>, `oct-13` <dbl>,
#   `nov-13` <dbl>, `Dec 2013` <dbl>, `janv-14` <dbl>, `Feb 2014` <dbl>, `mars-14` <dbl>,
#   `Apr 2014` <dbl>, `May 2014` <dbl>, `juin-14` <dbl>, `juil-14` <dbl>, `Aug 2014` <dbl>,
#   `sept-14` <dbl>, `oct-14` <dbl>, `nov-14` <dbl>, `Dec 2014` <dbl>, `janv-15` <dbl>, `Feb 2015` <dbl>,
#   `mars-15` <dbl>, `Apr 2015` <dbl>, `May 2015` <dbl>, `juin-15` <dbl>, `juil-15` <dbl>, …
…
Error in library(tdyr) : there is no package called ‘tdyr’
> library(tidyr)
> gather(df1,years,amount,janv-12:"Dec 2019")
Error in gather(df1, years, amount, janv - 12:"Dec 2019") : 
  object 'df1' not found
> gather(df1,years,amount,[1:57,4:99]
Error: unexpected '[' in "gather(df1,years,amount,["
> gather(df1,years,amount,[1:57,4:99])
Error: unexpected '[' in "gather(df1,years,amount,["
> colnames(Electric_Car_Sales_by_Model_in_USA)[colnames(Electric_Car_Sales_by_Model_in_USA)=="janv-12"]<-"Jan2012"
> View(Electric_Car_Sales_by_Model_in_USA)
> colnames(Electric_Car_Sales_by_Model_in_USA)<-c("make","model","logo","jan12","feb12","mar12","apr12","may12","jun12","jul12","aug12","sep12","oct12","nov12","dec12","jan13","feb13","mar13","apr13","may13","jun13","jul13","aug13","sep13","oct13","nov13","dec13","jan14","feb14","mar14","apr14","may14","jun14","jul14","aug14","sep14","oct14","nov14","dec14","jan15","feb15","mar15","apr15","may15","jun15","jul15","aug15","sep15","oct15","nov15","dec15","jan16","feb16","mar16","apr16","may16","jun16","jul16","aug16","sep16","oct16","nov16","dec16","jan17","feb17","mar17","apr17","may17","jun17","jul17","aug17","sep17","oct17","nov17","dec17","jan18","feb18","mar18","apr18","may18","jun18","jul18","aug18","sep18","oct18","nov18","dec18","jan19","feb19","mar19","apr19","may19","jun19","jul19","aug19","sep19","oct19","nov19","dec19")
> View(Electric_Car_Sales_by_Model_in_USA)
> replace_na(Electric_Car_Sales_by_Model_in_USA)
# A tibble: 57 × 99
   make     model logo  jan12 feb12 mar12 apr12 may12 jun12 jul12 aug12 sep12 oct12 nov12 dec12 jan13 feb13
   <chr>    <chr> <chr> <dbl> <dbl> <dbl> <dbl> <dbl> <dbl> <dbl> <dbl> <dbl> <dbl> <dbl> <dbl> <dbl> <dbl>
 1 Chevrol… Volt  http…   603  1626  3915  5377  7057  8817 10666 13497 16348 19309 20828 23461 24601 26227
 2 Toyota   Priu… http…     0    21   912  2566  3652  4347  5035  6082  7734  9623 11389 12750 13624 14317
 3 Nissan   Leaf  http…   676  1154  1733  2103  2613  3148  3543  4228  5212  6791  8330  9819 10469 11122
 4 Tesla    Mode… http…     0    NA    NA    NA    NA    12    31    74   160   460   860  2650  3850  5250
 5 Ford     C-Ma… http…     0    NA    NA    NA    NA    NA    NA    NA    NA   144  1403  2374  2712  3046
 6 Ford     Focu… http…     2     2     2     2     8    97   135   169   228   346   518   680   761   919
 7 Mitsubi… i-Mi… http…    36    80   136   215   300   333   366   403   439   469   511   588   845  1182
 8 Toyota   Rav4… http…     0    NA    NA    NA    NA    NA    NA    NA    61   108   140   192   217   269
 9 Honda    Fit … http…     0    NA    NA    NA    NA    NA     7    16    32    48    74    93   101   116
10 Ford     Fusi… http…     0    NA    NA    NA    NA    NA    NA    NA    NA    NA    NA    NA    NA   119
# … with 47 more rows, and 82 more variables: mar13 <dbl>, apr13 <dbl>, may13 <dbl>, jun13 <dbl>,
#   jul13 <dbl>, aug13 <dbl>, sep13 <dbl>, oct13 <dbl>, nov13 <dbl>, dec13 <dbl>, jan14 <dbl>,
#   feb14 <dbl>, mar14 <dbl>, apr14 <dbl>, may14 <dbl>, jun14 <dbl>, jul14 <dbl>, aug14 <dbl>,
#   sep14 <dbl>, oct14 <dbl>, nov14 <dbl>, dec14 <dbl>, jan15 <dbl>, feb15 <dbl>, mar15 <dbl>,
#   apr15 <dbl>, may15 <dbl>, jun15 <dbl>, jul15 <dbl>, aug15 <dbl>, sep15 <dbl>, oct15 <dbl>,
#   nov15 <dbl>, dec15 <dbl>, jan16 <dbl>, feb16 <dbl>, mar16 <dbl>, apr16 <dbl>, may16 <dbl>,
#   jun16 <dbl>, jul16 <dbl>, aug16 <dbl>, sep16 <dbl>, oct16 <dbl>, nov16 <dbl>, dec16 <dbl>, …
…
> mar<-Electric_Car_Sales_by_Model_in_USA[ ,28:39]
> View(mar)
> apr<-Electric_Car_Sales_by_Model_in_USA[ ,40:51]
> View(mar)
> View(apr)
> may<-Electric_Car_Sales_by_Model_in_USA[ ,52:63]
> View(may)
> jun<-Electric_Car_Sales_by_Model_in_USA[ ,64:75]
> View(jun)
> jul<-Electric_Car_Sales_by_Model_in_USA[ ,76:87]
> View(jul)
> aug<-Electric_Car_Sales_by_Model_in_USA[ ,88:99]
> View(aug)
> replace_na(jan)
# A tibble: 57 × 12
   jan12 feb12 mar12 apr12 may12 jun12 jul12 aug12 sep12 oct12 nov12 dec12
   <dbl> <dbl> <dbl> <dbl> <dbl> <dbl> <dbl> <dbl> <dbl> <dbl> <dbl> <dbl>
 1   603  1626  3915  5377  7057  8817 10666 13497 16348 19309 20828 23461
 2     0    21   912  2566  3652  4347  5035  6082  7734  9623 11389 12750
 3   676  1154  1733  2103  2613  3148  3543  4228  5212  6791  8330  9819
 4     0     0     0     0     0    12    31    74   160   460   860  2650
 5     0     0     0     0     0     0     0     0     0   144  1403  2374
 6     2     2     2     2     8    97   135   169   228   346   518   680
 7    36    80   136   215   300   333   366   403   439   469   511   588
 8     0     0     0     0     0     0     0     0    61   108   140   192
 9     0     0     0     0     0     0     7    16    32    48    74    93
10     0     0     0     0     0     0     0     0     0     0     0     0
# … with 47 more rows
…
> sum()1201996
Error: unexpected numeric constant in "sum()1201996"
> sum(aug)
Error in FUN(X[[i]], ...) : 
  only defined on a data frame with all numeric-alike variables
> View(aug)
> last<-aug[1,1:8]
> View(last)
> last<-aug[ ,1:8]
> last<-aug[ ,1:12]
> sum(last)
Error in FUN(X[[i]], ...) : 
  only defined on a data frame with all numeric-alike variables
> clean_names(last)
# A tibble: 57 × 12
    jan19  feb19  mar19  apr19  may19 jun19    jul19 aug19    sep19 oct19   nov19   dec19  
    <dbl>  <dbl>  <dbl>  <dbl>  <dbl> <chr>    <dbl> <chr>    <dbl> <chr>   <chr>   <chr>  
 1 144822 145437 146667 147072  14748 147,813 148063 148,337 148687 148,757 148,907 149,057
 2  42345  42345  42345  42345  42345 42345    42345 42345    42345 42345   42345   42345  
 3 120566 121220 122534 123485 124701 125,857 126795 127,912  12896 129,847 130,987 132,214
 4 144617 145242 147517 148342 149367 151,117 152092 153,142 154242 154,992 156,492 157,992
 5  42231  42231  42231  42231  42231 42231    42231 42231    42231 42231   42231   42231  
 6   9242   9242   9242   9242   9242 9242      9242 9242      9242 9242    9242    9242   
 7   2028   2028   2028   2028   2028 2028      2028 2028      2028 2028    2028    2028   
 8   2472   2472   2472   2472   2472 2472      2472 2472      2472 2472    2472    2472   
 9   1069   1069   1069   1069   1069 1069      1069 1069      1069 1069    1069    1069   
10  61590  62163  62774  63359  63964 64,639   65359 65,979   66679 67,279‬  67,879  68,557 
# … with 47 more rows
…
